{
  "home": {
    "title": "Ruuby - Book Beauty Treatments Straight To Your Door",
    "description": "London's award winning at-home beauty booking service. Book your blowdry, manicure, makeup, waxing, facial, massage and more, direct to your home or hotel. £10 off with your first booking! As featured in Vogue, Grazia and Forbes."
  },
  "about": {
    "title": "Ruuby - Book Beauty Treatments Straight To Your Door",
    "description": "London's award winning at-home beauty booking service. Book your blowdry, manicure, makeup, waxing, facial, massage and more, direct to your home or hotel. £10 off with your first booking! As featured in Vogue, Grazia and Forbes."
  },
  "category": {
    "title": "Ruuby - Book Beauty Treatments Straight To Your Door",
    "description": "London's award winning at-home beauty booking service. Book your blowdry, manicure, makeup, waxing, facial, massage and more, direct to your home or hotel. £10 off with your first booking!"
  },
  "join": {
    "title": "Join the Ruuby team",
    "description": "Join London’s Leading Beauty Concierge and take charge of your freelance schedule – work where you want, when you want."
  },
  "login": {
    "title": "Ruuby - Login",
    "description": "London's award winning at-home beauty booking service. Login to book your blowdry, manicure, makeup, waxing, facial, massage and more, direct to your home or hotel."
  },
  "register": {
    "title": "Ruuby - Register",
    "description": "London's award winning at-home beauty booking service. Register an account with us book our expert beauty therapists!"
  },
  "priceList": {
    "title": "Ruuby Price List",
    "description": "London's award winning at-home beauty booking service. View our price list and book your blowdry, manicure, makeup, waxing, facial, massage and more, direct to your home or hotel. £10 off with your first booking! As featured in Vogue, Grazia and Forbes."
  },
  "checkout": {
    "title": "Ruuby - Checkout",
    "description": "London's award winning at-home beauty booking service. Book your blowdry, manicure, makeup, waxing, facial, massage and more, direct to your home or hotel. £10 off with your first booking! As featured in Vogue, Grazia and Forbes."
  },
  "faqs": {
    "title": "Ruuby - Questions & Answers",
    "description": "Most frequent questions asked at Ruuby HQ and their corresponding answers"
  },
  "privacyPolicy": {
    "title": " Ruuby Privacy Policy",
    "description": "This privacy policy has been compiled to better serve those who are concerned with how their 'Personally identifiable information' (PII) is being used online. PII, as used in US privacy law and information security, is information that can be used on its own or with other information to identify, contact, or locate a single person, or to identify an individual in context. Please read our privacy policy carefully to get a clear understanding of how we collect, use, protect or otherwise handle your Personally Identifiable Information in accordance with our website."
  },
  "search": {
    "All": {
      "title": "Beauty Therapist",
      "description": ""
    },
    "Nails": {
      "title": "Nails London",
      "description": ""
    },
    "Hair": {
      "title": "Hairdresser London",
      "description": ""
    },
    "Massage": {
      "title": "Massage London",
      "description": ""
    },
    "Waxing": {
      "title": "Waxing London",
      "description": ""
    },
    "Makeup": {
      "title": "Makeup Artist London",
      "description": ""
    },
    "Eyes": {
      "title": "Eyelash Extensions London",
      "desription": ""
    },
    "Tanning": {
      "title": "Spray Tan London",
      "description": ""
    },
    "Facial": {
      "title": "Facial London",
      "description": ""
    },
    "Wellness": {
      "title": "Personal Trainer London",
      "description": ""
    },
    "Cosmetic Injectables": {
      "title": "Cosmetic Injectables London",
      "description": ""
    },
    "Ruuby Men": {
      "title": "Mens Grooming London",
      "description": ""
    }
  }
}